…
Using
-----

The simplest use of the package is:

``` r
library(budgetSP)
httr::set_config(httr::config(ssl_verifypeer = 0L))
consultaDespesa_get(ano = 2016, codigoOrgao = "01000") %>%
  consultaDespesa_parse()
#> # A tibble: 172 × 19
#>                   CodigoNomeOrgao                   CodigoNomeUo
#>                             <chr>                          <chr>
#> 1  01000 - ASSEMBLEIA LEGISLATIVA 01001 - ASSEMBLEIA LEGISLATIVA
#> 2  01000 - ASSEMBLEIA LEGISLATIVA 01001 - ASSEMBLEIA LEGISLATIVA
#> 3  01000 - ASSEMBLEIA LEGISLATIVA 01001 - ASSEMBLEIA LEGISLATIVA
#> 4  01000 - ASSEMBLEIA LEGISLATIVA 01001 - ASSEMBLEIA LEGISLATIVA
#> 5  01000 - ASSEMBLEIA LEGISLATIVA 01001 - ASSEMBLEIA LEGISLATIVA
#> 6  01000 - ASSEMBLEIA LEGISLATIVA 01001 - ASSEMBLEIA LEGISLATIVA
#> 7  01000 - ASSEMBLEIA LEGISLATIVA 01001 - ASSEMBLEIA LEGISLATIVA
#> 8  01000 - ASSEMBLEIA LEGISLATIVA 01001 - ASSEMBLEIA LEGISLATIVA
#> 9  01000 - ASSEMBLEIA LEGISLATIVA 01001 - ASSEMBLEIA LEGISLATIVA
#> 10 01000 - ASSEMBLEIA LEGISLATIVA 01001 - ASSEMBLEIA LEGISLATIVA
#> # ... with 162 more rows, and 17 more variables: CodigoNomeUg <chr>,
#> #   CodigoNomeFonteRecursos <chr>, CodigoNomeTipoLicitacao <chr>,
#> #   CodigoNomeFuncao <chr>, CodigoNomeSubFuncao <chr>,
#> #   CodigoNomePrograma <chr>, CodigoNomeAcao <chr>,
#> #   CodigoNomeProgramaTrabalho <chr>, CodigoNomeMunicipio <chr>,
#> #   CgcCpfFavorecido <chr>, CodigoNomeElemento <chr>,
#> #   NaturezaDespesaNomeItem <chr>, ValorDotacaoInicial <dbl>,
#> #   ValorEmpenhado <dbl>, ValorLiquidado <dbl>, ValorPago <dbl>,
#> #   ValorPagoAnosAnteriores <dbl>
```
